{
    "how-to-use": "To access our .json and .html files, just copy the link and navigate there.",
    "repositories-download": "https://codespacempt.gitlab.io/repositories/download/",
    "embeds": "https://codespacempt.gitlab.io/repositories/api/embed.json",
    "contact": "https://codespacempt.gitlab.io/repositories/api/contact.json"
}